{
  "twitter": {
    "login": { // voir https://dev.twitter.com/oauth/overview/application-owner-access-tokens
      "consumer_key": "...",
      "consumer_secret": "...",
      "access_token_key": "...",
      "access_token_secret": "..."
    }
  },
  "diaspora": {
    "server": "...", // votre pod
    "login": { // utilisez vos login et mot de passe usuels
      "username": "...",
      "password": "..."
    }
  }
}
